{
  "ConnectionStrings": {
    "DefaultConnection": "workstation id=armSport.mssql.somee.com;packet size=4096;user id=Revolution00001_SQLLogin_1;pwd=adx7cdk5xl;data source=armSport.mssql.somee.com;persist security info=False;initial catalog=armSport"
  }
}